\relax 
\bibstyle{amsplain}
\newlabel{tocindent-1}{0pt}
\newlabel{tocindent0}{0pt}
\newlabel{tocindent1}{17.78pt}
\newlabel{tocindent2}{27.88pt}
\newlabel{tocindent3}{0pt}
\@writefile{toc}{\contentsline {section}{\tocsection {}{1}{Introduction}}{1}\protected@file@percent }
\newlabel{sec:introduction}{{1}{1}}
\@writefile{toc}{\contentsline {section}{\tocsection {}{2}{System Model}}{1}\protected@file@percent }
\newlabel{sec:system-model}{{2}{1}}
\@writefile{toc}{\contentsline {subsection}{\tocsubsection {}{2.1}{Concept}}{1}\protected@file@percent }
\@writefile{toc}{\contentsline {section}{\tocsection {}{3}{Conclusion}}{1}\protected@file@percent }
